{
  "acl": {
    "roles": {
      "Guest": {},
      "User": {
        "inherits": "Guest"
      },
      "Waiter": {
        "inherits": "User"
      },
      "Owner": {
        "inherits": "Waiter"
      },
      "Admin": {
        "inherits": "User"
      },
      "Expired": {}
    },
    "resources": {
      "Index": {
        "errorInvalidToken": ["Guest"],
        "error500": ["Guest"]
      },
      "Game": {
        "create": ["Guest"],
        "results": ["Guest"],
        "step": ["Guest"],
        "finish": ["Guest"]
      }
    }
  }
}