{
    "swagger": "2.0",
    "info": {
        "title": "EMenu API documentation",
        "version": "0.1"
    },
    "paths": {
        "/api/desk/create": {
            "post": {
                "tags": [
                    "Desk"
                ],
                "description": "Create new desk for restaurant",
                "parameters": [
                    {
                        "name": "body",
                        "in": "body",
                        "description": "Create new desk for restaurant",
                        "required": true,
                        "schema": {
                            "$ref": "#/definitions/DeskCreateRequest"
                        }
                    }
                ],
                "responses": {
                    "200": {
                        "description": "CreateDesk"
                    }
                }
            }
        },
        "/api/desk/edit": {
            "post": {
                "tags": [
                    "Desk"
                ],
                "description": "Update desk data for restaurant",
                "parameters": [
                    {
                        "name": "body",
                        "in": "body",
                        "description": "Update desk data for restaurant",
                        "required": true,
                        "schema": {
                            "$ref": "#/definitions/DeskEditRequest"
                        }
                    }
                ],
                "responses": {
                    "200": {
                        "description": "EditDesk"
                    }
                }
            }
        },
        "/api/desk/remove": {
            "post": {
                "tags": [
                    "Desk"
                ],
                "description": "Remove desk for restaurant",
                "parameters": [
                    {
                        "name": "body",
                        "in": "body",
                        "description": "Remove desk for restaurant",
                        "required": true,
                        "schema": {
                            "$ref": "#/definitions/DeskRemoveRequest"
                        }
                    }
                ],
                "responses": {
                    "200": {
                        "description": "RemoveDesk"
                    }
                }
            }
        },
        "/api/restaurant/get": {
            "post": {
                "tags": [
                    "Restaurant"
                ],
                "description": "Get restaurant data by id",
                "parameters": [
                    {
                        "name": "id",
                        "in": "get",
                        "description": "Get restaurant data by id",
                        "required": true,
                        "schema": {
                            "$ref": "#/definitions/GetRestaurantRequest"
                        }
                    }
                ],
                "responses": {
                    "200": {
                        "description": "GetRestaurant"
                    }
                }
            }
        },
        "/api/restaurant/create": {
            "post": {
                "tags": [
                    "Restaurant"
                ],
                "description": "Create new restaurant",
                "parameters": [
                    {
                        "name": "body",
                        "in": "body",
                        "description": "Create new restaurant",
                        "required": true,
                        "schema": {
                            "$ref": "#/definitions/CreateRestaurantRequest"
                        }
                    }
                ],
                "responses": {
                    "200": {
                        "description": "CreateRestaurant"
                    }
                }
            }
        },
        "/api/restaurant/edit": {
            "post": {
                "tags": [
                    "Restaurant"
                ],
                "description": "Edit restaurant",
                "parameters": [
                    {
                        "name": "body",
                        "in": "body",
                        "description": "Edit restaurant",
                        "required": true,
                        "schema": {
                            "$ref": "#/definitions/EditRestaurantRequest"
                        }
                    }
                ],
                "responses": {
                    "200": {
                        "description": "EditRestaurant"
                    }
                }
            }
        },
        "/api/restaurant/remove": {
            "post": {
                "tags": [
                    "Restaurant"
                ],
                "description": "Remove restaurant",
                "parameters": [
                    {
                        "name": "body",
                        "in": "body",
                        "description": "Remove restaurant",
                        "required": true,
                        "schema": {
                            "$ref": "#/definitions/DeleteRestaurantRequest"
                        }
                    }
                ],
                "responses": {
                    "200": {
                        "description": "RemoveRestaurant"
                    }
                }
            }
        },
        "/api/restaurant/my": {
            "get": {
                "tags": [
                    "Restaurant"
                ],
                "description": "Get list of restaurants for current user",
                "responses": {
                    "200": {
                        "description": "UserRestaurants"
                    }
                }
            }
        },
        "/api/user/signup": {
            "post": {
                "tags": [
                    "User"
                ],
                "description": "SignUp for user",
                "parameters": [
                    {
                        "name": "body",
                        "in": "body",
                        "description": "Sing up new user",
                        "required": true,
                        "schema": {
                            "$ref": "#/definitions/UserSignUpRequest"
                        }
                    }
                ],
                "responses": {
                    "200": {
                        "description": "SignUpUser"
                    }
                }
            }
        },
        "/api/user/signin": {
            "post": {
                "tags": [
                    "User"
                ],
                "description": "SignIn user by phone and password",
                "parameters": [
                    {
                        "name": "body",
                        "in": "body",
                        "description": "SignIn user by phone and password",
                        "required": true,
                        "schema": {
                            "$ref": "#/definitions/UserSignInRequest"
                        }
                    }
                ],
                "responses": {
                    "200": {
                        "description": "SignInUser"
                    }
                }
            }
        },
        "/api/user/profile": {
            "get": {
                "tags": [
                    "User"
                ],
                "description": "Get current user profile",
                "responses": {
                    "200": {
                        "description": "UserProfile"
                    }
                }
            }
        }
    },
    "definitions": {
        "CreateContactRequest": {
            "required": [
                "type_id",
                "value"
            ],
            "properties": {
                "type_id": {
                    "example": "1"
                },
                "value": {
                    "example": "+30010001122"
                }
            },
            "xml": {
                "name": "CreateContactRequest"
            }
        },
        "DeskCreateRequest": {
            "required": [
                "restaurant_id",
                "name"
            ],
            "properties": {
                "restaurant_id": {
                    "example": "1"
                },
                "name": {
                    "example": "#1"
                }
            },
            "xml": {
                "name": "DeskCreateRequest"
            }
        },
        "DeskEditRequest": {
            "required": [
                "id",
                "restaurant_id",
                "name"
            ],
            "properties": {
                "id": {
                    "example": "1"
                },
                "restaurant_id": {
                    "example": "1"
                },
                "name": {
                    "example": "#1"
                }
            },
            "xml": {
                "name": "DeskEditRequest"
            }
        },
        "DeskRemoveRequest": {
            "required": [
                "id"
            ],
            "properties": {
                "id": {
                    "example": "1"
                }
            },
            "xml": {
                "name": "DeskRemoveRequest"
            }
        },
        "MenuCreateRequest": {
            "required": [
                "name"
            ],
            "properties": {
                "name": {
                    "example": "Super menu"
                }
            },
            "xml": {
                "name": "MenuCreateRequest"
            }
        },
        "MenuEditRequest": {
            "required": [
                "id",
                "name"
            ],
            "properties": {
                "id": {
                    "example": "1"
                },
                "name": {
                    "example": "Super menu"
                }
            },
            "xml": {
                "name": "MenuEditRequest"
            }
        },
        "MenuRemoveRequest": {
            "required": [
                "id"
            ],
            "properties": {
                "id": {
                    "example": "1"
                }
            },
            "xml": {
                "name": "MenuRemoveRequest"
            }
        },
        "CreateRestaurantRequest": {
            "required": [
                "name"
            ],
            "properties": {
                "name": {
                    "example": "MacDag"
                },
                "address": {
                    "example": "Astana"
                },
                "description": {
                    "example": "Goods restaurant"
                },
                "contacts": {
                    "type": "array",
                    "items": "$ref:CreateContactRequest"
                }
            },
            "xml": {
                "name": "CreateRestaurantRequest"
            }
        },
        "DeleteRestaurantRequest": {
            "required": [
                "id"
            ],
            "properties": {
                "id": {
                    "example": "1"
                }
            },
            "xml": {
                "name": "DeleteRestaurantRequest"
            }
        },
        "EditRestaurantRequest": {
            "required": [
                "id",
                "name"
            ],
            "properties": {
                "id": {
                    "example": "1"
                },
                "name": {
                    "example": "MacDag"
                },
                "address": {
                    "example": "Astana"
                },
                "description": {
                    "example": "Goods restaurant"
                },
                "contacts": {
                    "type": "array",
                    "items": "$ref:CreateContactRequest"
                }
            },
            "xml": {
                "name": "EditRestaurantRequest"
            }
        },
        "GetRestaurantRequest": {
            "required": [
                "id"
            ],
            "properties": {
                "id": {
                    "example": "1"
                }
            },
            "xml": {
                "name": "GetRestaurantRequest"
            }
        },
        "UserSignInRequest": {
            "required": [
                "phone",
                "password"
            ],
            "properties": {
                "phone": {
                    "example": "+30010001122"
                },
                "password": {
                    "example": "password"
                }
            },
            "xml": {
                "name": "UserSignInRequest"
            }
        },
        "UserSignUpRequest": {
            "required": [
                "name",
                "password",
                "phone"
            ],
            "properties": {
                "name": {
                    "example": "John Smith"
                },
                "password": {
                    "example": "password"
                },
                "phone": {
                    "example": "+30010001122"
                }
            },
            "xml": {
                "name": "UserSignUpRequest"
            }
        }
    },
    "tags": [
        {
            "name": "Desk",
            "description": "Some API functions for work with desks"
        },
        {
            "name": "Restaurant",
            "description": "Some API functions for work with restaurants"
        },
        {
            "name": "User",
            "description": "Some API functions for work with users"
        }
    ]
}